{
  "name": "cranston",
  "$schema": "../../node_modules/nx/schemas/project-schema.json",
  "sourceRoot": "apps/cranston/src",
  "projectType": "application",
  "tags": [],
  "// targets": "to see all targets run: nx show project cranston --web",
  "targets": {}
}
